B-
B+
A-
B-
F
B+
A
B+
C+
B+
A-
D+
B+
A
B+
B+
B+
B-
A
B+
B+
B+
B+
B+
B+
B+
B-
B-
B+
A
B+
A
A
D+
A
B+
B-
A-
B-
B+
B+
B+
D+
B+
B-
A
B+
D+
B+
B+
D+
D+
B+
B-
B+
B+
D+
D+
B+
A
D+
B+
B+
B+
A
B+
B
B+
C
D+
A
A
B+
D+
C+
A
B+
B+
B+
B+
B+
B+
B-
A
B+
B+
B+
A
A
B+
B+
D+
B+
B+
A
B-
F
C+
B+
A-
C+
B
B+
C
C+
B+
D+
B+
B+
B-
A
A
B-
B+
B-
B+
B+
B-
C-
A
B+
B
B-
B+
B+
D+
A
B+
B+
A
A-
B-
A
A
B+
A
B+
A
B+
A-
A
C+
B-
D+
C+
B+
D-
B+
A
B-
B+
B-
B+
B+
A-
B+
D+
A-
A-
A-
C
B+
B+
F
B+
A
C
A
B+
B+
B-
D+
D+
A
B+
B+
B+
B+
C+
B-
A
B+
A
A
A-
D+
B+
A
A
A
B-
A
A
A
B+
B+
B+
B+
A
A
B+
B+
B+
B+
C+
A
C+
B+
B+
C+
D+
B+
B+
A
B-
B+
D+
B+
B+
B+
A
B+
B
B+
B+
D+
A
B+
B+
C+
B+
B+
A
B-
B+
B+
B+
A
D+
B+
A
B
B+
B+
C-
A
A
A
A
B+
B+
D+
B+
B+
A
B+
B
B
B+
B+
B+
B+
B+
B+
B+
B+
B+
B-
D+
B+
C+
C+
D+
B+
C
B+
A
A
D+
B+
B+
B-
B+
B+
B+
B+
D+
B+
